edgelist:
0 1
1 0
1 2
2 1
2 3
3 2
3 4
4 3
4 5
5 4
5 6
6 5
6 7
7 6
6 8
8 6
8 9
9 8
9 10
10 9
8 11
11 8
11 12
12 11
12 13
13 12
12 14
14 12
14 15
15 14
15 16
16 15
16 17
17 16
17 18
18 17
18 19
19 18
19 20
20 19
19 21
21 19
21 22
22 21
14 23
23 14
23 24
24 23
24 25
25 24
24 26
26 24
26 27
27 26
26 28
28 26
28 29
29 28
4 30
30 4
30 31
31 30
30 32
32 30
32 33
33 32
33 34
34 33
34 35
35 34
35 36
36 35
36 37
37 36
36 38
38 36
33 39
39 33
39 40
40 39
39 41
41 39
41 42
42 41
42 43
43 42
43 44
44 43
44 45
45 44
45 46
46 45
46 47
47 46
47 48
48 47
42 49
49 42
49 50
50 49
49 51
51 49
51 52
52 51
52 53
53 52
53 54
54 53
54 55
55 54
55 56
56 55
56 57
57 56
57 58
58 57
58 59
59 58
52 60
60 52
60 61
61 60
60 62
62 60
62 63
63 62
63 64
64 63
64 65
65 64
65 66
66 65
66 67
67 66
67 68
68 67
68 69
69 68
68 70
70 68
63 71
71 63
71 72
72 71
71 73
73 71
73 74
74 73
74 75
75 74
75 76
76 75
76 77
77 76
77 78
78 77
78 79
79 78
79 80
80 79
80 81
81 80
81 82
82 81
82 83
83 82
83 84
84 83
74 85
85 74
85 86
86 85
85 87
87 85
87 88
88 87
88 89
89 88
89 90
90 89
89 91
91 89
91 92
92 91
92 93
93 92
93 94
94 93
94 95
95 94
95 96
96 95
96 97
97 96
92 98
98 92
98 99
99 98
98 100
100 98
100 101
101 100
101 102
102 101
102 103
103 102
103 104
104 103
104 105
105 104
105 106
106 105
105 107
107 105
107 108
108 107
108 109
109 108
109 110
110 109
109 111
111 109
111 112
112 111
112 113
113 112
113 114
114 113
113 115
115 113
115 116
116 115
116 117
117 116
117 118
118 117
118 119
119 118
119 120
120 119
120 121
121 120
116 122
122 116
122 123
123 122
122 124
124 122
124 125
125 124
125 126
126 125
126 127
127 126
127 128
128 127
128 129
129 128
129 130
130 129
125 131
131 125
131 132
132 131
131 133
133 131
133 134
134 133
134 135
135 134
135 136
136 135
136 137
137 136
137 138
138 137
138 139
139 138
139 140
140 139
139 141
141 139
134 142
142 134
142 143
143 142
142 144
144 142
144 145
145 144
145 146
146 145
146 147
147 146
147 148
148 147
148 149
149 148
149 150
150 149
150 151
151 150
150 152
152 150
145 153
153 145
153 154
154 153
153 155
155 153
155 156
156 155
156 157
157 156
157 158
158 157
158 159
159 158
159 160
160 159
160 161
161 160
160 162
162 160
162 163
163 162
163 164
164 163
164 165
165 164
164 166
166 164
166 167
167 166
167 168
168 167
168 169
169 168
169 170
170 169
170 171
171 170
171 172
172 171
167 173
173 167
173 174
174 173
173 175
175 173
175 176
176 175
176 177
177 176
177 178
178 177
177 179
179 177
179 180
180 179
180 181
181 180
181 182
182 181
182 183
183 182
183 184
184 183
184 185
185 184
185 186
186 185
185 187
187 185
187 188
188 187
180 189
189 180
189 190
190 189
189 191
191 189
191 192
192 191
192 193
193 192
193 194
194 193
194 195
195 194
195 196
196 195
196 197
197 196
196 198
198 196
176 199
199 176
199 200
200 199
199 201
201 199
163 202
202 163
202 203
203 202
202 204
204 202
108 205
205 108
205 206
206 205
205 207
207 205
22 16
16 22
48 44
44 48
59 54
54 59
84 76
76 84
104 100
100 104
159 155
155 159
188 182
182 188
195 191
191 195
84 79
79 84

idx to identifier:
0 2592252298
1 229197718
2 4120224926
3 1583799011
4 4223976160
5 1362518133
6 4222851645
7 1510328189
8 4223976160
9 4022716898
10 1535166686
11 1362518133
12 4222851645
13 1510328189
14 4223976160
15 74537039
16 4121755354
17 951226070
18 951226070
19 2905660137
20 26234434
21 951226070
22 951226070
23 1362518133
24 4222851645
25 1510328189
26 4274980665
27 2599973650
28 4022716898
29 1535166686
30 4222851645
31 1510328189
32 1362518133
33 4223976160
34 1583799011
35 1167322652
36 4278941385
37 1510328189
38 1533864325
39 4222851645
40 1510328189
41 1362518133
42 4223976160
43 74537039
44 3585958780
45 3777168895
46 3118255683
47 584893129
48 2297887526
49 4222851645
50 1510328189
51 1362518133
52 4223976160
53 74537039
54 4121755354
55 951226070
56 98513984
57 98513984
58 98513984
59 951226070
60 4222851645
61 1510328189
62 1362518133
63 4223976160
64 1583799011
65 1510461303
66 787069595
67 717512901
68 2438720939
69 2669055056
70 2591432844
71 4222851645
72 1510328189
73 1362518133
74 4223976160
75 74537039
76 4089138501
77 2752034647
78 2297887526
79 2720313463
80 951226070
81 98513984
82 98513984
83 951226070
84 3983062349
85 4222851645
86 1510328189
87 717512901
88 773709216
89 3315826729
90 1510328189
91 1362518133
92 4223976160
93 1583799011
94 1510461303
95 1510461303
96 787341104
97 2592785365
98 3614376044
99 1510328189
100 443932914
101 2803848648
102 2142032900
103 2117068077
104 2211527187
105 2806018737
106 1510328189
107 1362518133
108 4066851934
109 4222851645
110 1510328189
111 717512901
112 773709216
113 3315826729
114 1510328189
115 1362518133
116 4223976160
117 1583799011
118 1510461303
119 1510461303
120 787341104
121 2592785365
122 4222851645
123 1510328189
124 1362518133
125 4223976160
126 1583799011
127 1510461303
128 1510461303
129 787341104
130 2592785365
131 4222851645
132 1510328189
133 1362518133
134 4223976160
135 1583799011
136 1510461303
137 787069595
138 717512901
139 2438720939
140 2669055056
141 2591432844
142 4222851645
143 1510328189
144 1362518133
145 4223976160
146 1583799011
147 1510461303
148 787069595
149 717512901
150 2438720939
151 2669055056
152 2591432844
153 3614376044
154 1510328189
155 443932914
156 2803848648
157 2142032900
158 2117068077
159 2211527187
160 2806018737
161 1510328189
162 1362518133
163 4066851934
164 4222851645
165 1510328189
166 1362518133
167 4223976160
168 1583799011
169 1510461303
170 1510461303
171 787341104
172 2592785365
173 4222851645
174 1510328189
175 1362518133
176 4066851934
177 4222851645
178 1510328189
179 1362518133
180 4223976160
181 74537039
182 4121755354
183 951226070
184 951226070
185 2905660137
186 26234434
187 951226070
188 951226070
189 3614376044
190 1510328189
191 443932914
192 2803848648
193 2142032900
194 2117068077
195 2211527187
196 909362583
197 1510328189
198 1533864325
199 3004333805
200 3537119515
201 3537119515
202 3004333805
203 3537119515
204 3537119515
205 3004333805
206 3537119515
207 3537119515
