edgelist:
0 1
1 0
1 2
2 1
1 3
3 1
4 5
5 4
5 6
6 5
5 7
7 5
7 8
8 7
8 9
9 8
9 10
10 9
10 11
11 10
10 12
12 10
10 13
13 10

idx to identifier:
0 3537119515
1 2651952833
2 3537119515
3 2599973650
4 1510328189
5 4278941385
6 1533864325
7 773709216
8 894436332
9 2010999307
10 57405021
11 2235918822
12 2192318254
13 2192318254
