edgelist:
0 1
1 0
1 2
2 1
2 3
3 2
3 4
4 3
4 5
5 4
4 6
6 4
6 7
7 6
7 1
1 7

idx to identifier:
0 3452535345
1 2246340824
2 951226070
3 951226070
4 2246340824
5 3452535345
6 951226070
7 951226070
