edgelist:
0 1
1 0
1 2
2 1
2 3
3 2
3 4
4 3
4 5
5 4
5 6
6 5
6 7
7 6
1 8
8 1
8 9
9 8
9 10
10 9
10 11
11 10
11 12
12 11
12 13
13 12
13 14
14 13
14 15
15 14
15 16
16 15
16 17
17 16
17 18
18 17
18 19
19 18
19 20
20 19
20 21
21 20
21 22
22 21
7 3
3 7
13 8
8 13
21 16
16 21

idx to identifier:
0 1510328189
1 1054767590
2 1790668568
3 618663528
4 55489393
5 3402594617
6 1142813461
7 3372400797
8 2309124039
9 951226070
10 98513984
11 98513984
12 951226070
13 1135286194
14 2115476908
15 2835079913
16 4089138501
17 951226070
18 98513984
19 98513984
20 951226070
21 2424973678
22 3452535345
