edgelist:
0 1
1 0
1 2
2 1
1 3
3 1
3 4
4 3
4 5
5 4
5 6
6 5
6 7
7 6
7 8
8 7
8 9
9 8
9 10
10 9
8 11
11 8
11 12
12 11
12 13
13 12
12 14
14 12
14 15
15 14
15 16
16 15
16 17
17 16
16 18
18 16
14 19
19 14
19 20
20 19
5 21
21 5
21 22
22 21
22 23
23 22
23 24
24 23
22 25
25 22
25 26
26 25
26 27
27 26
27 28
28 27
28 29
29 28
29 30
30 29
30 31
31 30
29 32
32 29
32 33
33 32
32 34
34 32
34 35
35 34
35 36
36 35
36 37
37 36
37 38
38 37
38 39
39 38
39 40
40 39
40 41
41 40
41 42
42 41
42 43
43 42
43 44
44 43
44 45
45 44
43 46
46 43
46 47
47 46
46 48
48 46
48 49
49 48
49 50
50 49
50 51
51 50
51 52
52 51
52 53
53 52
53 54
54 53
54 55
55 54
55 56
56 55
56 57
57 56
57 58
58 57
58 59
59 58
57 60
60 57
60 61
61 60
60 62
62 60
62 63
63 62
62 64
64 62
64 65
65 64
65 66
66 65
66 67
67 66
67 68
68 67
68 69
69 68
69 70
70 69
68 71
71 68
71 72
72 71
71 73
73 71
73 74
74 73
73 75
75 73
75 76
76 75
76 77
77 76
77 78
78 77
78 79
79 78
79 80
80 79
80 81
81 80
79 82
82 79
82 83
83 82
82 84
84 82
84 85
85 84
84 86
86 84
86 87
87 86
52 88
88 52
88 89
89 88
88 90
90 88
90 91
91 90
90 92
92 90
92 93
93 92
48 94
94 48
94 95
95 94
38 96
96 38
96 97
97 96
96 98
98 96
98 99
99 98
98 100
100 98
100 101
101 100
34 102
102 34
102 103
103 102
25 104
104 25
104 105
105 104
104 4
4 104
19 7
7 19
102 27
27 102
100 36
36 100
94 41
41 94
92 50
50 92
64 55
55 64
75 66
66 75
86 77
77 86

idx to identifier:
0 3545365497
1 411967733
2 1510328189
3 1693331843
4 2584514126
5 1286704427
6 920763749
7 954800030
8 1916236386
9 3153477100
10 1535166686
11 2667063169
12 1068491328
13 266675433
14 2584514126
15 1693331843
16 411967733
17 3545365497
18 1510328189
19 675765711
20 266675433
21 2667063169
22 1916236386
23 3153477100
24 1535166686
25 954800030
26 920763749
27 1286704427
28 2667063169
29 1916236386
30 3153477100
31 1535166686
32 675765711
33 266675433
34 954800030
35 920763749
36 1286704427
37 2667063169
38 1916236386
39 3129492592
40 1759589175
41 1286704427
42 2667063169
43 1916236386
44 3153477100
45 1535166686
46 675765711
47 266675433
48 954800030
49 920763749
50 1286704427
51 2667063169
52 1916236386
53 3129492592
54 1759589175
55 1286704427
56 2667063169
57 1916236386
58 3153477100
59 1535166686
60 675765711
61 266675433
62 675765711
63 266675433
64 954800030
65 920763749
66 1286704427
67 2667063169
68 1916236386
69 3153477100
70 1535166686
71 675765711
72 266675433
73 675765711
74 266675433
75 954800030
76 920763749
77 1286704427
78 2667063169
79 1916236386
80 3153477100
81 1535166686
82 675765711
83 266675433
84 675765711
85 266675433
86 675765711
87 266675433
88 675765711
89 266675433
90 675765711
91 266675433
92 675765711
93 266675433
94 675765711
95 266675433
96 675765711
97 266675433
98 675765711
99 266675433
100 675765711
101 266675433
102 675765711
103 266675433
104 675765711
105 266675433
