edgelist:
0 1
1 0
1 2
2 1
1 3
3 1
3 4
4 3
4 5
5 4
5 6
6 5
6 7
7 6
7 8
8 7
8 9
9 8
8 10
10 8
10 11
11 10
11 12
12 11
10 13
13 10
13 14
14 13
14 15
15 14
15 16
16 15
16 17
17 16
17 18
18 17
18 19
19 18
19 20
20 19
19 21
21 19
17 22
22 17
22 23
23 22
23 24
24 23
24 25
25 24
25 26
26 25
26 27
27 26
25 28
28 25
28 29
29 28
29 30
30 29
30 31
31 30
31 32
32 31
32 33
33 32
33 34
34 33
32 35
35 32
35 36
36 35
36 37
37 36
36 38
38 36
38 39
39 38
38 40
40 38
40 41
41 40
29 42
42 29
42 43
43 42
42 44
44 42
44 45
45 44
45 46
46 45
46 47
47 46
47 48
48 47
47 49
49 47
46 50
50 46
50 51
51 50
51 52
52 51
51 53
53 51
53 54
54 53
54 55
55 54
55 56
56 55
55 57
57 55
53 58
58 53
58 59
59 58
59 60
60 59
59 61
61 59
61 62
62 61
61 63
63 61
63 64
64 63
58 65
65 58
22 66
66 22
66 67
67 66
67 68
68 67
68 69
69 68
67 70
70 67
70 71
71 70
14 72
72 14
72 73
73 72
5 74
74 5
74 75
75 74
75 76
76 75
76 77
77 76
75 78
78 75
78 79
79 78
78 80
80 78
80 81
81 80
80 4
4 80
72 7
7 72
70 16
16 70
44 24
24 44
65 46
46 65
40 31
31 40

idx to identifier:
0 3545365497
1 411967733
2 1510328189
3 1693331843
4 2584514126
5 1286704427
6 920763749
7 954800030
8 675765711
9 266675433
10 1916236386
11 3153477100
12 1535166686
13 2667063169
14 1286704427
15 920763749
16 954800030
17 2584514126
18 1693331843
19 411967733
20 3545365497
21 1510328189
22 1286704427
23 920763749
24 954800030
25 1916236386
26 3153477100
27 1535166686
28 2667063169
29 1286704427
30 920763749
31 954800030
32 1916236386
33 3153477100
34 1535166686
35 2667063169
36 1068491328
37 266675433
38 675765711
39 266675433
40 675765711
41 266675433
42 675765711
43 266675433
44 954800030
45 921537740
46 336466418
47 1292826808
48 1510328189
49 1533864325
50 516041383
51 1228528465
52 266675433
53 2584514126
54 1693331843
55 411967733
56 3545365497
57 1510328189
58 3795525628
59 3411158823
60 1542633699
61 1735424888
62 1542633699
63 4022716898
64 1535166686
65 2651067438
66 2667063169
67 1916236386
68 3153477100
69 1535166686
70 675765711
71 266675433
72 675765711
73 266675433
74 2667063169
75 1916236386
76 3153477100
77 1535166686
78 675765711
79 266675433
80 675765711
81 266675433
