edgelist:
0 1
1 0
1 2
2 1
1 3
3 1
3 4
4 3
4 5
5 4
5 6
6 5
6 7
7 6
7 8
8 7
8 9
9 8
8 10
10 8
10 11
11 10
11 12
12 11
10 13
13 10
13 14
14 13
14 15
15 14
15 16
16 15
16 17
17 16
17 18
18 17
17 19
19 17
19 20
20 19
16 21
21 16
21 22
22 21
21 23
23 21
23 24
24 23
23 25
25 23
25 26
26 25
14 27
27 14
27 28
28 27
5 29
29 5
29 30
30 29
30 31
31 30
31 32
32 31
30 33
33 30
33 34
34 33
34 35
35 34
35 36
36 35
36 37
37 36
37 38
38 37
38 39
39 38
37 40
40 37
40 41
41 40
40 42
42 40
42 43
43 42
43 44
44 43
44 45
45 44
45 46
46 45
46 47
47 46
47 48
48 47
46 49
49 46
49 50
50 49
49 51
51 49
51 52
52 51
52 53
53 52
53 54
54 53
54 55
55 54
55 56
56 55
56 57
57 56
55 58
58 55
58 59
59 58
58 60
60 58
60 61
61 60
60 62
62 60
62 63
63 62
51 64
64 51
64 65
65 64
65 66
66 65
66 67
67 66
66 68
68 66
42 69
69 42
69 70
70 69
33 71
71 33
71 72
72 71
71 4
4 71
27 7
7 27
69 35
35 69
64 44
44 64
62 53
53 62

idx to identifier:
0 3545365497
1 411967733
2 1510328189
3 1693331843
4 2584514126
5 1286704427
6 920763749
7 954800030
8 675765711
9 266675433
10 1916236386
11 3153477100
12 1535166686
13 2667063169
14 1286704427
15 199163361
16 4004502706
17 1735424888
18 1542633699
19 4022716898
20 1535166686
21 1732487997
22 1542633699
23 1735424888
24 1542633699
25 4022716898
26 1535166686
27 675765711
28 266675433
29 2667063169
30 1916236386
31 3153477100
32 1535166686
33 954800030
34 920763749
35 1286704427
36 2667063169
37 1916236386
38 3153477100
39 1535166686
40 675765711
41 266675433
42 954800030
43 920763749
44 1286704427
45 2667063169
46 1916236386
47 3153477100
48 1535166686
49 675765711
50 266675433
51 954800030
52 920763749
53 1286704427
54 2667063169
55 1916236386
56 3153477100
57 1535166686
58 675765711
59 266675433
60 675765711
61 266675433
62 675765711
63 266675433
64 2584514126
65 1693331843
66 411967733
67 3545365497
68 1510328189
69 675765711
70 266675433
71 675765711
72 266675433
